﻿0
"{""author"":""Kansas City Royals "",""link"":""https://www.facebook.com/Royals/posts/10158391593783691"",""content"":""Left side of the infield came to play!#TogetherRoyal"",""date"":""24 Jul, 2021"",""comments"":""28 comments"",""shares"":""85 shares""}"
"{""author"":""GMA News "",""link"":""https://www.facebook.com/gmanews/posts/10160243652916977"",""content"":""Gorgeous at 52! Jennifer Lopez is looking great and living it up at 52. On her birthday, the singer and actress posted a series of striking photos that showed herself in a bikini on a yacht. READ: https://www.gmanetwork.com/.../jennifer-lopez.../story/As though that wasn't hot enough, she included a photo of herself with rumored boyfriend Ben Affleck in a deep kiss.Photo courtesy: Ana Carballosa (@lacarba) via Jennifer Lopez/IG"",""date"":""25 Jul, 2021"",""comments"":""388 comments"",""shares"":""734 shares""}"
"{""author"":""Campo Elpidio shared a post."",""link"":""https://www.facebook.com/groups/261662148275094/posts/521351375639502/"",""content"":""Sir,isa pa ho malaking issue ng lopezes"",""date"":""22 Jul, 2021"",""comments"":""1 share"",""shares"":""1 share""}"

"{""author"":""Patrick Paolantonio "",""link"":""https://www.facebook.com/PatrickPaolantonioWISN/posts/241004097841731"",""content"":""So many stories out here in the Deer District. The Lopez family got out here at 8:30 a.m. to grab a spot for the Bucks championship celebration. Antonio Lopez turned 49 the same day the Bucks won the NBA Championship! What a birthday present. Happy birthday, Antonio! Congratulations Bucks!"",""date"":""22 Jul, 2021"",""comments"":""1 comment"",""shares"":""4 shares""}"

